{
  "content": [
    {
      "id": "7cd62311-44ea-4ac2-b796-41b12d72a112",
      "name": "Politie",
      "dateCreated": 1641376628223,
      "description": "Dit is een test project voor Politie",
      "path": "politie-path"
    },
    {
      "id": "57d80cc9-fa0c-4ff0-8fbf-8387f568b2ec",
      "name": "Unity",
      "dateCreated": 1641376628223,
      "description": "Dit is een test project voor Unity",
      "path": "unity-path"
    },
    {
      "id": "9f80a109-c66d-4454-873d-b0b9a8f8bf19",
      "name": "Angular",
      "dateCreated": 1641376628223,
      "description": "Dit is een test project voor Angular",
      "path": "angular-path"
    },
    {
      "id": "ec24c902-2ca5-4cdd-bc2f-69b8fa75813a",
      "name": "Gmod",
      "dateCreated": 1641376628223,
      "description": "Dit is een test project voor Gmod",
      "path": "gmod-path"
    },
    {
      "id": "88c0dcbe-214e-4f2f-8bb2-8085f7115d6d",
      "name": "Mars company ",
      "dateCreated": 1641376628223,
      "description": "Dit is een test project voor Mars company",
      "path": "mars-company-path"
    }
  ],
  "pageable": {
    "pageNumber": 1,
    "pageSize": 5,
    "sort": {
      "empty": true,
      "unsorted": true,
      "sorted": false
    },
    "offset": 5,
    "paged": true,
    "unpaged": false
  },
  "last": true,
  "totalPages": 3,
  "totalElements": 12,
  "size": 5,
  "number": 1,
  "sort": {
    "empty": true,
    "unsorted": true,
    "sorted": false
  },
  "first": false,
  "numberOfElements": 5,
  "empty": false
}
