{
  "content": [
    {
      "id": "dccab0aa-c637-4caf-859a-9c77d46e3527",
      "name": "Tesla ",
      "dateCreated": 1641376628223,
      "description": "Dit is een test project voor Tesla",
      "path": "tesla-path"
    },
    {
      "id": "2cbcb322-df17-4929-881f-86933e126769",
      "name": "Next Floor Leveling",
      "dateCreated": 1641376628223,
      "description": "Dit is een test project voor Next Floor Leveling",
      "path": "next-floor-leveling-path"
    }
  ],
  "pageable": {
    "pageNumber": 2,
    "pageSize": 5,
    "sort": {
      "empty": true,
      "unsorted": true,
      "sorted": false
    },
    "offset": 10,
    "paged": true,
    "unpaged": false
  },
  "last": true,
  "totalPages": 3,
  "totalElements": 12,
  "size": 2,
  "number": 2,
  "sort": {
    "empty": true,
    "unsorted": true,
    "sorted": false
  },
  "first": false,
  "numberOfElements": 2,
  "empty": false
}
