{
  "content": [
    {
      "id": "838a0acb-bf6d-4cef-939d-ac5f2feed03e",
      "name": "Hsleiden",
      "dateCreated": 1641376628223,
      "description": "Dit is een test project voor hsleiden",
      "path": "hsleiden-path"
    },
    {
      "id": "8b032c97-1e44-42b8-a2a0-f123a4fb6c1c",
      "name": "LUMC ",
      "dateCreated": 1641376628223,
      "description": "Dit is een test project voor LUMC",
      "path": "lumc-path"
    },
    {
      "id": "d103b80b-2247-4359-8f15-809c429a0d3f",
      "name": "Gemeente Leiden",
      "dateCreated": 1641376628223,
      "description": "Dit is een test project voor gemeente leiden",
      "path": "gemeente-leiden-path"
    },
    {
      "id": "9c16593e-8b90-4505-9c2c-d231e758b107",
      "name": "Defensie ",
      "dateCreated": 1641376628223,
      "description": "Dit is een test project voor Defensie",
      "path": "defensie-path"
    },
    {
      "id": "f55d6681-005a-4549-9293-1be1086d96a4",
      "name": "Pannenkoekenhuis pieter ",
      "dateCreated": 1641376628223,
      "description": "Dit is een test project voor pieter",
      "path": "pieter-path"
    },
    {
      "id": "7cd62311-44ea-4ac2-b796-41b12d72a112",
      "name": "Politie",
      "dateCreated": 1641376628223,
      "description": "Dit is een test project voor Politie",
      "path": "politie-path"
    },
    {
      "id": "57d80cc9-fa0c-4ff0-8fbf-8387f568b2ec",
      "name": "Unity",
      "dateCreated": 1641376628223,
      "description": "Dit is een test project voor Unity",
      "path": "unity-path"
    },
    {
      "id": "9f80a109-c66d-4454-873d-b0b9a8f8bf19",
      "name": "Angular",
      "dateCreated": 1641376628223,
      "description": "Dit is een test project voor Angular",
      "path": "angular-path"
    },
    {
      "id": "ec24c902-2ca5-4cdd-bc2f-69b8fa75813a",
      "name": "Gmod",
      "dateCreated": 1641376628223,
      "description": "Dit is een test project voor Gmod",
      "path": "gmod-path"
    },
    {
      "id": "88c0dcbe-214e-4f2f-8bb2-8085f7115d6d",
      "name": "Mars company ",
      "dateCreated": 1641376628223,
      "description": "Dit is een test project voor Mars company",
      "path": "mars-company-path"
    }
  ],
  "pageable": {
    "pageNumber": 0,
    "pageSize": 5,
    "sort": {
      "empty": true,
      "unsorted": true,
      "sorted": false
    },
    "offset": 0,
    "paged": true,
    "unpaged": false
  },
  "last": true,
  "totalPages": 3,
  "totalElements": 12,
  "size": 5,
  "number": 0,
  "sort": {
    "empty": true,
    "unsorted": true,
    "sorted": false
  },
  "first": true,
  "numberOfElements": 5,
  "empty": false
}
