{
  "content": [
    {
      "id": "838a0acb-bf6d-4cef-939d-ac5f2feed03e",
      "name": "Hsleiden",
      "dateCreated": 1641376628223,
      "description": "Dit is een test project voor hsleiden",
      "path": "hsleiden-path"
    },
    {
      "id": "8b032c97-1e44-42b8-a2a0-f123a4fb6c1c",
      "name": "LUMC ",
      "dateCreated": 1641376628223,
      "description": "Dit is een test project voor LUMC",
      "path": "lumc-path"
    },
    {
      "id": "d103b80b-2247-4359-8f15-809c429a0d3f",
      "name": "Gemeente Leiden",
      "dateCreated": 1641376628223,
      "description": "Dit is een test project voor gemeente leiden",
      "path": "gemeente-leiden-path"
    },
    {
      "id": "9c16593e-8b90-4505-9c2c-d231e758b107",
      "name": "Defensie ",
      "dateCreated": 1641376628223,
      "description": "Dit is een test project voor Defensie",
      "path": "defensie-path"
    },
    {
      "id": "f55d6681-005a-4549-9293-1be1086d96a4",
      "name": "Pannenkoekenhuis pieter ",
      "dateCreated": 1641376628223,
      "description": "Dit is een test project voor pieter",
      "path": "pieter-path"
    }
  ],
  "pageable": {
    "pageNumber": 0,
    "pageSize": 5,
    "sort": {
      "empty": true,
      "unsorted": true,
      "sorted": false
    },
    "offset": 0,
    "paged": true,
    "unpaged": false
  },
  "last": true,
  "totalPages": 3,
  "totalElements": 12,
  "size": 5,
  "number": 0,
  "sort": {
    "empty": true,
    "unsorted": true,
    "sorted": false
  },
  "first": true,
  "numberOfElements": 5,
  "empty": false
}
